…
We can save this nsduh function into a r script paste it there save that
into a “source folder” and then call on the function whenevre in this
project and it does the same thing.

``` r
source("source/nsduh_table_format.R")

bind_rows(
    nsduh_table(nsduh_html, 1, "marj_one_year"),
    nsduh_table(nsduh_html, 4, "cocaine_one_year"),
    nsduh_table(nsduh_html, 5, "heroin_one_year")
  )
```

    ## # A tibble: 1,530 × 5
    ##    State   age   year      percent name         
    ##    <chr>   <chr> <chr>       <dbl> <chr>        
    ##  1 Alabama 12+   2013-2014    9.98 marj_one_year
    ##  2 Alabama 12+   2014-2015    9.6  marj_one_year
    ##  3 Alabama 12-17 2013-2014    9.9  marj_one_year
    ##  4 Alabama 12-17 2014-2015    9.71 marj_one_year
    ##  5 Alabama 18-25 2013-2014   27.0  marj_one_year
    ##  6 Alabama 18-25 2014-2015   26.1  marj_one_year
    ##  7 Alabama 26+   2013-2014    7.1  marj_one_year
    ##  8 Alabama 26+   2014-2015    6.81 marj_one_year
    ##  9 Alabama 18+   2013-2014    9.99 marj_one_year
    ## 10 Alabama 18+   2014-2015    9.59 marj_one_year
    ## # ℹ 1,520 more rows
